<?xml version="1.0" encoding="utf-8"?>
<!-- Generator: Adobe Illustrator 18.1.1, SVG Export Plug-In . SVG Version: 6.00 Build 0)  -->
<svg version="1.1" id="Ebene_2" xmlns="http://www.w3.org/2000/svg" xmlns:xlink="http://www.w3.org/1999/xlink" x="0px" y="0px"
	 viewBox="0 0 865 145" enable-background="new 0 0 865 145" xml:space="preserve">
<path id="path2486" fill="#F0F2DD" d="M179.7,3c-6.3,0-9.4,9.7-9.4,14.9c0,3.5,1.5,8,5.5,8c6.3,0,9.4-10,9.4-15.4
	C185.3,7.2,183.6,3,179.7,3z M93.4,7.8c-9,0-18,1-27,1c-4.7,0-9.8-0.5-14.7-0.5c-1.8,0-4.3,0.1-4.3,2.9c0,4.3,10.8-0.5,10.8,7.2
	c0,2.6-1.2,5.8-1.9,8.4l-24.1,88.4c-2.3,8.6-2.6,12.1-11.1,14.2c-2.3,0.4-6,0.6-6,3.6c0,1.5,0.9,1.9,2.2,1.9
	c5.2,0,10.7-0.7,16.1-0.7c4.5,0,9,0.2,13.5,0.5s9,0.5,13.5,0.5c19.3,0,34-6.4,46.3-22.4c13.1-17.3,22.7-43.2,22.7-65.8
	c0-11.1-3-22.2-9.9-29.9C112.8,9.7,103.3,7.8,93.4,7.8z M295.1,8.8v125.6h26.5V74.6c-0.2-9.6-0.2-15.5-0.2-17.6
	c-0.4-7.5-0.5-11.3-1.4-20.5l1.2,7.5l1.2,6.3l1.9,8.7l18.3,75.4h18.3l17.8-74.9l1.4-6.5l2.2-10.1l1.2-6.3
	c-1.5,12.2-1.9,20.8-1.9,38.1v59.8h26.5V8.8h-37.8l-12.8,49.9c-2.7,10.5-3.9,17.4-5.8,33.7c-2.5-17.1-3.9-24.8-6-33.5L333.2,8.8
	H295.1z M508.2,8.8v125.6h22.7v-9.9c3.6,8.3,9.1,11.8,17.8,11.8c20.7,0,32.1-18,32.1-51.3S570,33.8,550.1,33.8
	c-9.3,0-14.4,3.5-17.6,11.6V8.8H508.2z M590.8,8.8v20.7h24.3V8.8H590.8z M629.6,8.8v125.6h24.6V8.8H629.6z M668.4,8.8v20.7H693V8.8
	H668.4z M85.2,13.1c2,0,4.1,0,6.3,0c17.1,0,23.6,11.9,23.6,28.4c0,16.6-5.2,36-11.3,51.1c-9.2,23-22.3,37.8-47.5,37.8
	c-1.3,0-2.6-0.1-3.9-0.2c-1.9-0.2-3.7-0.6-5.1-1.7c-1.3-1-2.2-2.6-2.2-5.3c0-3.8,1.1-8.5,2.2-12l23.9-86.5c0.4-1.3,0.8-2.8,1.2-4.1
	C74.2,14.2,79.2,13.2,85.2,13.1z M840.3,31.7c-14.8,0-21,4.3-25.5,16.9V36H793v98.3h24.3V78.9c0-14.9,3.7-20,14.5-20
	c2.7,0,3.9,0.3,8.4,1.2l1.9-28.4H840.3z M735,33.8c-19.7,0-31.8,19.4-31.8,51.6c0,31.6,12.1,50.8,31.8,50.8
	c9.5,0,15.5-3.5,20.2-11.8v9.9h21.4V36h-21.4v9.9C752,38.2,744.8,33.8,735,33.8z M459.3,34.1c-23.7,0-38.6,19.4-38.6,50.8
	s14.9,51.3,38.6,51.3c23.7,0,38.3-19.4,38.3-50.8C497.6,53.2,483.1,34.1,459.3,34.1z M590.8,38.2v96.4h24.3V38.2H590.8z M668.4,38.2
	v96.4H693V38.2H668.4z M169.8,39.6c-4.8,0-11.2,3.8-17.1,10.6c-5.2,5.8-10.2,14.2-12,19c-0.5,1.3-1,3-1,4.6c0,1.2,0.4,1.4,1,1.4
	c0.3,0,0.5-0.1,0.7-0.2c0.2-0.2,0.5-0.4,0.7-0.7c0.5-0.7,1-1.6,1.9-3.1c4.3-7.5,11.5-20,16.1-20c1.3,0,1.7,1,1.7,1.9
	c0,1.9-1.5,6.6-3.4,12L145,106.9c-3,8.9-5.1,17.4-5.1,22.4c0,4.1,1,8.2,6.7,8.2c4.8,0,9.7-3,16.1-11.3c8.5-10.8,13.5-22.3,13.5-25.5
	c0-1-0.4-1.2-1-1.2c-1.5,0-1.9,1.4-8,11.8c-3.7,6.4-8.2,13-11.6,13c-1.3,0-1.7-1.2-1.7-2.4c0-3.5,3-12.1,4.1-15.4L171,66.6
	c1.9-5.8,4.8-13.6,4.8-19.8C175.9,43,174.1,39.6,169.8,39.6z M237.5,39.6c-10.7,0-22.1,8-29.2,15.9c-12.4,13.5-20.7,32.9-20.7,52.1
	c0,13,5,29.9,20,29.9c9.6,0,19-7.3,25.1-14.5c3.3-3.9,12.3-15.1,12.3-20.5c0-0.8-0.3-1.9-1.4-1.9c-0.3,0-0.5,0.1-0.7,0.2
	s-0.3,0.5-0.5,0.7c-0.4,0.5-0.8,1.3-1.4,2.4c-4.8,8.9-16,23.6-26.5,23.6c-10,0-13-11-13-19.5c0-4.4,0.7-8.5,1.4-12.5
	c10-1.7,20-2.9,29.4-6.7c12-5,22.2-16.1,22.2-30.4C254.4,48.2,247.9,39.6,237.5,39.6z M235.4,43.7c5.4,0,7.2,4.8,7.2,9.9
	c0,7.5-2.7,15.2-7,21.2c-8,11.2-19.7,14-32.1,16.9c2.2-9.1,6.5-22.9,13.5-33.7C221.9,50.6,228.2,43.7,235.4,43.7z M459,56
	c9.3,0,14,9.8,14,29.2c0,18.6-5,28.9-13.5,28.9c-9.1,0-14-10.2-14-29.2C445.5,66.5,450.5,56,459,56z M543.9,56c8.7,0,12,7.8,12,28.9
	c0,20.7-3.5,29.2-12,29.2c-8,0-11.3-6.3-11.3-21V74.8C532.5,62,536.1,56,543.9,56z M740.5,56c7.4,0,11.8,6.5,11.8,17.8v19.8
	c0,14.3-3.7,20.5-11.8,20.5c-8.9,0-12.5-8.5-12.5-29.2C728,65.4,732,56,740.5,56z"/>
</svg>
