# Blender v2.79 (sub 0) OBJ File: ''
# www.blender.org
mtllib Logo.mtl
o Curve.017
v 0.099884 0.081787 -0.000000
v 0.099884 0.404890 -0.000000
v 0.002256 0.404890 -0.000000
v 0.002256 0.002816 -0.000000
v 0.230704 0.002816 -0.000000
v 0.230704 0.081787 -0.000000
v 0.099884 0.081787 -0.000000
vn 0.0000 -0.0000 1.0000
usemtl SVGMat
s off
f 4//1 2//1 3//1
f 4//1 7//1 2//1
f 4//1 6//1 7//1
f 4//1 5//1 6//1
o Curve.016
v 0.002256 0.404890 -0.000000
v 0.002256 0.002816 -0.000000
v 0.230704 0.002816 -0.000000
v 0.230704 0.081787 -0.000000
v 0.099884 0.081787 -0.000000
v 0.099884 0.404890 -0.000000
v 0.002256 0.404890 -0.000000
vn 0.0000 -0.0000 1.0000
usemtl SVGMat
s off
f 9//2 13//2 14//2
f 9//2 12//2 13//2
f 9//2 11//2 12//2
f 9//2 10//2 11//2
o Curve.015
v 0.532979 0.139782 -0.000000
v 0.438848 0.139782 -0.000000
v 0.485857 0.289887 -0.000000
v 0.557090 0.060839 -0.000000
v 0.574574 0.002985 -0.000000
v 0.681875 0.002985 -0.000000
v 0.549899 0.404806 -0.000000
v 0.425819 0.404806 -0.000000
v 0.293279 0.002731 -0.000000
v 0.397619 0.002731 -0.000000
v 0.415103 0.060585 -0.000000
vn 0.0000 -0.0000 1.0000
usemtl SVGMat
s off
f 23//3 21//3 22//3
f 23//3 17//3 21//3
f 17//3 20//3 21//3
f 23//3 16//3 17//3
f 15//3 20//3 17//3
f 23//3 15//3 16//3
f 23//3 25//3 15//3
f 25//3 18//3 15//3
f 18//3 20//3 15//3
f 19//3 20//3 18//3
f 23//3 24//3 25//3
o Curve.014
v 0.532979 0.139782 -0.000000
v 0.438848 0.139782 -0.000000
v 0.485857 0.289887 -0.000000
v 0.557090 0.060839 -0.000000
v 0.574574 0.002985 -0.000000
v 0.681875 0.002985 -0.000000
v 0.549899 0.404806 -0.000000
v 0.425819 0.404806 -0.000000
v 0.293279 0.002731 -0.000000
v 0.397619 0.002731 -0.000000
v 0.415103 0.060585 -0.000000
vn 0.0000 -0.0000 1.0000
usemtl SVGMat
s off
f 34//4 32//4 33//4
f 34//4 28//4 32//4
f 28//4 31//4 32//4
f 34//4 27//4 28//4
f 26//4 31//4 28//4
f 34//4 26//4 27//4
f 34//4 36//4 26//4
f 36//4 29//4 26//4
f 29//4 31//4 26//4
f 30//4 31//4 29//4
f 34//4 35//4 36//4
o Curve.013
v 1.154026 0.740624 -0.000000
v 1.297536 0.516257 -0.000000
v 1.393190 0.516257 -0.000000
v 1.393190 0.910070 -0.000000
v 1.297536 0.910070 -0.000000
v 1.297536 0.688663 -0.000000
v 1.154026 0.910070 -0.000000
v 1.058372 0.910070 -0.000000
v 1.058372 0.516257 -0.000000
v 1.154026 0.516257 -0.000000
v 1.154026 0.740624 -0.000000
vn 0.0000 -0.0000 1.0000
usemtl SVGMat
s off
f 45//5 43//5 44//5
f 45//5 47//5 43//5
f 47//5 42//5 43//5
f 42//5 40//5 41//5
f 42//5 39//5 40//5
f 45//5 46//5 47//5
f 38//5 42//5 47//5
f 38//5 39//5 42//5
o Curve.012
v 1.297536 0.910070 -0.000000
v 1.297536 0.688663 -0.000000
v 1.154026 0.910070 -0.000000
v 1.058372 0.910070 -0.000000
v 1.058372 0.516257 -0.000000
v 1.154026 0.516257 -0.000000
v 1.154026 0.740624 -0.000000
v 1.297536 0.516257 -0.000000
v 1.393190 0.516257 -0.000000
v 1.393190 0.910070 -0.000000
v 1.297536 0.910070 -0.000000
vn 0.0000 -0.0000 1.0000
usemtl SVGMat
s off
f 52//6 50//6 51//6
f 52//6 54//6 50//6
f 54//6 49//6 50//6
f 49//6 57//6 58//6
f 49//6 56//6 57//6
f 52//6 53//6 54//6
f 55//6 49//6 54//6
f 55//6 56//6 49//6
o Curve.011
v 1.301230 0.325919 -0.000000
v 1.393444 0.325919 -0.000000
v 1.393444 0.404890 -0.000000
v 1.110711 0.404890 -0.000000
v 1.110711 0.325919 -0.000000
v 1.203546 0.325919 -0.000000
v 1.203546 0.002816 -0.000000
v 1.301230 0.002816 -0.000000
v 1.301230 0.325919 -0.000000
vn 0.0000 -0.0000 1.0000
usemtl SVGMat
s off
f 63//7 61//7 62//7
f 63//7 60//7 61//7
f 64//7 60//7 63//7
f 65//7 67//7 64//7
f 67//7 60//7 64//7
f 65//7 66//7 67//7
o Curve.010
v 1.110711 0.404890 -0.000000
v 1.110711 0.325919 -0.000000
v 1.203546 0.325919 -0.000000
v 1.203546 0.002816 -0.000000
v 1.301230 0.002816 -0.000000
v 1.301230 0.325919 -0.000000
v 1.393444 0.325919 -0.000000
v 1.393444 0.404890 -0.000000
v 1.110711 0.404890 -0.000000
vn 0.0000 -0.0000 1.0000
usemtl SVGMat
s off
f 69//8 75//8 76//8
f 69//8 74//8 75//8
f 70//8 74//8 69//8
f 71//8 73//8 70//8
f 73//8 74//8 70//8
f 71//8 72//8 73//8
o Curve.009
v 0.814555 0.404806 -0.000000
v 0.716899 0.404806 -0.000000
v 0.716899 0.175138 -0.000000
v 0.717139 0.159956 -0.000000
v 0.717867 0.145730 -0.000000
v 0.719093 0.132409 -0.000000
v 0.720827 0.119942 -0.000000
v 0.723080 0.108280 -0.000000
v 0.725863 0.097371 -0.000000
v 0.729186 0.087167 -0.000000
v 0.733059 0.077615 -0.000000
v 0.737492 0.068667 -0.000000
v 0.742498 0.060272 -0.000000
v 0.748085 0.052379 -0.000000
v 0.754264 0.044938 -0.000000
v 0.761830 0.037243 -0.000000
v 0.770035 0.030139 -0.000000
v 0.778838 0.023642 -0.000000
v 0.788200 0.017766 -0.000000
v 0.798079 0.012526 -0.000000
v 0.808436 0.007937 -0.000000
v 0.819230 0.004013 -0.000000
v 0.830420 0.000769 -0.000000
v 0.841968 -0.001779 -0.000000
v 0.853831 -0.003618 -0.000000
v 0.865969 -0.004732 -0.000000
v 0.878344 -0.005107 -0.000000
v 0.890280 -0.004757 -0.000000
v 0.901956 -0.003717 -0.000000
v 0.913335 -0.002003 -0.000000
v 0.924381 0.000371 -0.000000
v 0.935059 0.003390 -0.000000
v 0.945333 0.007038 -0.000000
v 0.955167 0.011300 -0.000000
v 0.964527 0.016162 -0.000000
v 0.973376 0.021608 -0.000000
v 0.981678 0.027623 -0.000000
v 0.989399 0.034192 -0.000000
v 0.996501 0.041301 -0.000000
v 0.997320 0.042240 -0.000000
v 0.999583 0.045053 -0.000000
v 1.003001 0.049735 -0.000000
v 1.007285 0.056281 -0.000000
v 1.012148 0.064685 -0.000000
v 1.017299 0.074943 -0.000000
v 1.022450 0.087049 -0.000000
v 1.027313 0.100997 -0.000000
v 1.031597 0.116782 -0.000000
v 1.035015 0.134400 -0.000000
v 1.037278 0.153844 -0.000000
v 1.038096 0.175109 -0.000000
v 1.038096 0.178167 -0.000000
v 1.038096 0.186807 -0.000000
v 1.038096 0.200232 -0.000000
v 1.038096 0.217646 -0.000000
v 1.038096 0.238249 -0.000000
v 1.038096 0.261245 -0.000000
v 1.038096 0.285837 -0.000000
v 1.038096 0.311226 -0.000000
v 1.038096 0.336615 -0.000000
v 1.038096 0.361206 -0.000000
v 1.038096 0.384202 -0.000000
v 1.038096 0.404806 -0.000000
v 0.940581 0.404806 -0.000000
v 0.940581 0.170796 -0.000000
v 0.940517 0.163810 -0.000000
v 0.940324 0.157296 -0.000000
v 0.939997 0.151224 -0.000000
v 0.939531 0.145565 -0.000000
v 0.938924 0.140289 -0.000000
v 0.938170 0.135366 -0.000000
v 0.937266 0.130767 -0.000000
v 0.936207 0.126462 -0.000000
v 0.934989 0.122421 -0.000000
v 0.933609 0.118615 -0.000000
v 0.932062 0.115014 -0.000000
v 0.930344 0.111588 -0.000000
v 0.927837 0.107773 -0.000000
v 0.924865 0.104180 -0.000000
v 0.921467 0.100830 -0.000000
v 0.917680 0.097743 -0.000000
v 0.913541 0.094941 -0.000000
v 0.909089 0.092445 -0.000000
v 0.904360 0.090275 -0.000000
v 0.899393 0.088453 -0.000000
v 0.894225 0.086999 -0.000000
v 0.888894 0.085934 -0.000000
v 0.883437 0.085280 -0.000000
v 0.877892 0.085058 -0.000000
v 0.872809 0.085244 -0.000000
v 0.867823 0.085792 -0.000000
v 0.862959 0.086688 -0.000000
v 0.858239 0.087917 -0.000000
v 0.853687 0.089463 -0.000000
v 0.849326 0.091313 -0.000000
v 0.845179 0.093451 -0.000000
v 0.841268 0.095863 -0.000000
v 0.837618 0.098534 -0.000000
v 0.834250 0.101449 -0.000000
v 0.831189 0.104593 -0.000000
v 0.828458 0.107951 -0.000000
v 0.826159 0.111523 -0.000000
v 0.824082 0.115317 -0.000000
v 0.822221 0.119358 -0.000000
v 0.820575 0.123669 -0.000000
v 0.819137 0.128272 -0.000000
v 0.817904 0.133192 -0.000000
v 0.816872 0.138451 -0.000000
v 0.816038 0.144073 -0.000000
v 0.815395 0.150081 -0.000000
v 0.814942 0.156498 -0.000000
v 0.814672 0.163349 -0.000000
v 0.814584 0.170655 -0.000000
v 0.814583 0.173771 -0.000000
v 0.814582 0.182579 -0.000000
v 0.814581 0.196265 -0.000000
v 0.814578 0.214016 -0.000000
v 0.814576 0.235019 -0.000000
v 0.814573 0.258461 -0.000000
v 0.814570 0.283530 -0.000000
v 0.814567 0.309411 -0.000000
v 0.814564 0.335292 -0.000000
v 0.814561 0.360360 -0.000000
v 0.814558 0.383803 -0.000000
vn 0.0000 -0.0000 1.0000
usemtl SVGMat
s off
f 79//9 77//9 78//9
f 79//9 200//9 77//9
f 141//9 139//9 140//9
f 141//9 138//9 139//9
f 141//9 137//9 138//9
f 79//9 199//9 200//9
f 141//9 136//9 137//9
f 79//9 198//9 199//9
f 141//9 135//9 136//9
f 79//9 197//9 198//9
f 141//9 134//9 135//9
f 79//9 196//9 197//9
f 141//9 133//9 134//9
f 79//9 195//9 196//9
f 141//9 132//9 133//9
f 79//9 194//9 195//9
f 141//9 131//9 132//9
f 79//9 193//9 194//9
f 141//9 130//9 131//9
f 79//9 192//9 193//9
f 141//9 129//9 130//9
f 79//9 191//9 192//9
f 141//9 128//9 129//9
f 79//9 190//9 191//9
f 141//9 127//9 128//9
f 80//9 190//9 79//9
f 141//9 126//9 127//9
f 80//9 189//9 190//9
f 142//9 126//9 141//9
f 80//9 188//9 189//9
f 143//9 126//9 142//9
f 80//9 187//9 188//9
f 81//9 187//9 80//9
f 144//9 126//9 143//9
f 81//9 186//9 187//9
f 144//9 125//9 126//9
f 145//9 125//9 144//9
f 81//9 185//9 186//9
f 82//9 185//9 81//9
f 146//9 125//9 145//9
f 82//9 184//9 185//9
f 147//9 125//9 146//9
f 82//9 183//9 184//9
f 148//9 125//9 147//9
f 148//9 124//9 125//9
f 82//9 182//9 183//9
f 83//9 182//9 82//9
f 149//9 124//9 148//9
f 83//9 181//9 182//9
f 150//9 124//9 149//9
f 83//9 180//9 181//9
f 151//9 124//9 150//9
f 84//9 180//9 83//9
f 84//9 179//9 180//9
f 152//9 124//9 151//9
f 152//9 123//9 124//9
f 84//9 178//9 179//9
f 153//9 123//9 152//9
f 154//9 123//9 153//9
f 84//9 177//9 178//9
f 85//9 177//9 84//9
f 85//9 176//9 177//9
f 155//9 123//9 154//9
f 85//9 175//9 176//9
f 156//9 123//9 155//9
f 85//9 174//9 175//9
f 156//9 122//9 123//9
f 157//9 122//9 156//9
f 85//9 173//9 174//9
f 158//9 122//9 157//9
f 86//9 173//9 85//9
f 86//9 172//9 173//9
f 159//9 122//9 158//9
f 86//9 171//9 172//9
f 160//9 122//9 159//9
f 86//9 170//9 171//9
f 161//9 122//9 160//9
f 86//9 169//9 170//9
f 162//9 122//9 161//9
f 86//9 168//9 169//9
f 87//9 168//9 86//9
f 162//9 121//9 122//9
f 163//9 121//9 162//9
f 87//9 167//9 168//9
f 164//9 121//9 163//9
f 87//9 166//9 167//9
f 165//9 121//9 164//9
f 87//9 165//9 166//9
f 87//9 121//9 165//9
f 88//9 121//9 87//9
f 88//9 120//9 121//9
f 89//9 120//9 88//9
f 89//9 119//9 120//9
f 90//9 119//9 89//9
f 90//9 118//9 119//9
f 91//9 118//9 90//9
f 91//9 117//9 118//9
f 91//9 116//9 117//9
f 92//9 116//9 91//9
f 92//9 115//9 116//9
f 92//9 114//9 115//9
f 93//9 114//9 92//9
f 93//9 113//9 114//9
f 94//9 113//9 93//9
f 94//9 112//9 113//9
f 95//9 112//9 94//9
f 95//9 111//9 112//9
f 96//9 111//9 95//9
f 96//9 110//9 111//9
f 97//9 110//9 96//9
f 97//9 109//9 110//9
f 98//9 109//9 97//9
f 98//9 108//9 109//9
f 99//9 108//9 98//9
f 99//9 107//9 108//9
f 100//9 107//9 99//9
f 100//9 106//9 107//9
f 101//9 106//9 100//9
f 101//9 105//9 106//9
f 102//9 105//9 101//9
f 102//9 104//9 105//9
f 103//9 104//9 102//9
o Curve.008
v 0.814555 0.404806 -0.000000
v 0.716899 0.404806 -0.000000
v 0.716899 0.175138 -0.000000
v 0.717139 0.159956 -0.000000
v 0.717867 0.145730 -0.000000
v 0.719093 0.132409 -0.000000
v 0.720827 0.119942 -0.000000
v 0.723080 0.108280 -0.000000
v 0.725863 0.097371 -0.000000
v 0.729186 0.087167 -0.000000
v 0.733059 0.077615 -0.000000
v 0.737492 0.068667 -0.000000
v 0.742498 0.060272 -0.000000
v 0.748085 0.052379 -0.000000
v 0.754264 0.044938 -0.000000
v 0.761830 0.037243 -0.000000
v 0.770035 0.030139 -0.000000
v 0.778838 0.023642 -0.000000
v 0.788200 0.017766 -0.000000
v 0.798079 0.012526 -0.000000
v 0.808436 0.007937 -0.000000
v 0.819230 0.004013 -0.000000
v 0.830420 0.000769 -0.000000
v 0.841968 -0.001779 -0.000000
v 0.853831 -0.003618 -0.000000
v 0.865969 -0.004732 -0.000000
v 0.878344 -0.005107 -0.000000
v 0.890280 -0.004757 -0.000000
v 0.901956 -0.003717 -0.000000
v 0.913335 -0.002003 -0.000000
v 0.924381 0.000371 -0.000000
v 0.935059 0.003390 -0.000000
v 0.945333 0.007038 -0.000000
v 0.955167 0.011300 -0.000000
v 0.964527 0.016162 -0.000000
v 0.973376 0.021608 -0.000000
v 0.981678 0.027623 -0.000000
v 0.989399 0.034192 -0.000000
v 0.996501 0.041301 -0.000000
v 0.997320 0.042240 -0.000000
v 0.999583 0.045053 -0.000000
v 1.003001 0.049735 -0.000000
v 1.007285 0.056281 -0.000000
v 1.012148 0.064685 -0.000000
v 1.017299 0.074943 -0.000000
v 1.022450 0.087049 -0.000000
v 1.027313 0.100997 -0.000000
v 1.031597 0.116782 -0.000000
v 1.035015 0.134400 -0.000000
v 1.037278 0.153844 -0.000000
v 1.038096 0.175109 -0.000000
v 1.038096 0.178167 -0.000000
v 1.038096 0.186807 -0.000000
v 1.038096 0.200232 -0.000000
v 1.038096 0.217646 -0.000000
v 1.038096 0.238249 -0.000000
v 1.038096 0.261245 -0.000000
v 1.038096 0.285837 -0.000000
v 1.038096 0.311226 -0.000000
v 1.038096 0.336615 -0.000000
v 1.038096 0.361206 -0.000000
v 1.038096 0.384202 -0.000000
v 1.038096 0.404806 -0.000000
v 0.940581 0.404806 -0.000000
v 0.940581 0.170796 -0.000000
v 0.940517 0.163810 -0.000000
v 0.940324 0.157296 -0.000000
v 0.939997 0.151224 -0.000000
v 0.939531 0.145565 -0.000000
v 0.938924 0.140289 -0.000000
v 0.938170 0.135366 -0.000000
v 0.937266 0.130767 -0.000000
v 0.936207 0.126462 -0.000000
v 0.934989 0.122421 -0.000000
v 0.933609 0.118615 -0.000000
v 0.932062 0.115014 -0.000000
v 0.930344 0.111588 -0.000000
v 0.927837 0.107773 -0.000000
v 0.924865 0.104180 -0.000000
v 0.921467 0.100830 -0.000000
v 0.917680 0.097743 -0.000000
v 0.913541 0.094941 -0.000000
v 0.909089 0.092445 -0.000000
v 0.904360 0.090275 -0.000000
v 0.899393 0.088453 -0.000000
v 0.894225 0.086999 -0.000000
v 0.888894 0.085934 -0.000000
v 0.883437 0.085280 -0.000000
v 0.877892 0.085058 -0.000000
v 0.872809 0.085244 -0.000000
v 0.867823 0.085792 -0.000000
v 0.862959 0.086688 -0.000000
v 0.858239 0.087917 -0.000000
v 0.853687 0.089463 -0.000000
v 0.849326 0.091313 -0.000000
v 0.845179 0.093451 -0.000000
v 0.841268 0.095863 -0.000000
v 0.837618 0.098534 -0.000000
v 0.834250 0.101449 -0.000000
v 0.831189 0.104593 -0.000000
v 0.828458 0.107951 -0.000000
v 0.826159 0.111523 -0.000000
v 0.824082 0.115317 -0.000000
v 0.822221 0.119358 -0.000000
v 0.820575 0.123669 -0.000000
v 0.819137 0.128272 -0.000000
v 0.817904 0.133192 -0.000000
v 0.816872 0.138451 -0.000000
v 0.816038 0.144073 -0.000000
v 0.815395 0.150081 -0.000000
v 0.814942 0.156498 -0.000000
v 0.814672 0.163349 -0.000000
v 0.814584 0.170655 -0.000000
v 0.814583 0.173771 -0.000000
v 0.814582 0.182579 -0.000000
v 0.814581 0.196265 -0.000000
v 0.814578 0.214016 -0.000000
v 0.814576 0.235019 -0.000000
v 0.814573 0.258461 -0.000000
v 0.814570 0.283530 -0.000000
v 0.814567 0.309411 -0.000000
v 0.814564 0.335292 -0.000000
v 0.814561 0.360360 -0.000000
v 0.814558 0.383803 -0.000000
vn 0.0000 -0.0000 1.0000
usemtl SVGMat
s off
f 203//10 201//10 202//10
f 203//10 324//10 201//10
f 265//10 263//10 264//10
f 265//10 262//10 263//10
f 265//10 261//10 262//10
f 203//10 323//10 324//10
f 265//10 260//10 261//10
f 203//10 322//10 323//10
f 265//10 259//10 260//10
f 203//10 321//10 322//10
f 265//10 258//10 259//10
f 203//10 320//10 321//10
f 265//10 257//10 258//10
f 203//10 319//10 320//10
f 265//10 256//10 257//10
f 203//10 318//10 319//10
f 265//10 255//10 256//10
f 203//10 317//10 318//10
f 265//10 254//10 255//10
f 203//10 316//10 317//10
f 265//10 253//10 254//10
f 203//10 315//10 316//10
f 265//10 252//10 253//10
f 203//10 314//10 315//10
f 265//10 251//10 252//10
f 204//10 314//10 203//10
f 265//10 250//10 251//10
f 204//10 313//10 314//10
f 266//10 250//10 265//10
f 204//10 312//10 313//10
f 267//10 250//10 266//10
f 204//10 311//10 312//10
f 205//10 311//10 204//10
f 268//10 250//10 267//10
f 205//10 310//10 311//10
f 268//10 249//10 250//10
f 269//10 249//10 268//10
f 205//10 309//10 310//10
f 206//10 309//10 205//10
f 270//10 249//10 269//10
f 206//10 308//10 309//10
f 271//10 249//10 270//10
f 206//10 307//10 308//10
f 272//10 249//10 271//10
f 272//10 248//10 249//10
f 206//10 306//10 307//10
f 207//10 306//10 206//10
f 273//10 248//10 272//10
f 207//10 305//10 306//10
f 274//10 248//10 273//10
f 207//10 304//10 305//10
f 275//10 248//10 274//10
f 208//10 304//10 207//10
f 208//10 303//10 304//10
f 276//10 248//10 275//10
f 276//10 247//10 248//10
f 208//10 302//10 303//10
f 277//10 247//10 276//10
f 278//10 247//10 277//10
f 208//10 301//10 302//10
f 209//10 301//10 208//10
f 209//10 300//10 301//10
f 279//10 247//10 278//10
f 209//10 299//10 300//10
f 280//10 247//10 279//10
f 209//10 298//10 299//10
f 280//10 246//10 247//10
f 281//10 246//10 280//10
f 209//10 297//10 298//10
f 282//10 246//10 281//10
f 210//10 297//10 209//10
f 210//10 296//10 297//10
f 283//10 246//10 282//10
f 210//10 295//10 296//10
f 284//10 246//10 283//10
f 210//10 294//10 295//10
f 285//10 246//10 284//10
f 210//10 293//10 294//10
f 286//10 246//10 285//10
f 210//10 292//10 293//10
f 211//10 292//10 210//10
f 286//10 245//10 246//10
f 287//10 245//10 286//10
f 211//10 291//10 292//10
f 288//10 245//10 287//10
f 211//10 290//10 291//10
f 289//10 245//10 288//10
f 211//10 289//10 290//10
f 211//10 245//10 289//10
f 212//10 245//10 211//10
f 212//10 244//10 245//10
f 213//10 244//10 212//10
f 213//10 243//10 244//10
f 214//10 243//10 213//10
f 214//10 242//10 243//10
f 215//10 242//10 214//10
f 215//10 241//10 242//10
f 215//10 240//10 241//10
f 216//10 240//10 215//10
f 216//10 239//10 240//10
f 216//10 238//10 239//10
f 217//10 238//10 216//10
f 217//10 237//10 238//10
f 218//10 237//10 217//10
f 218//10 236//10 237//10
f 219//10 236//10 218//10
f 219//10 235//10 236//10
f 220//10 235//10 219//10
f 220//10 234//10 235//10
f 221//10 234//10 220//10
f 221//10 233//10 234//10
f 222//10 233//10 221//10
f 222//10 232//10 233//10
f 223//10 232//10 222//10
f 223//10 231//10 232//10
f 224//10 231//10 223//10
f 224//10 230//10 231//10
f 225//10 230//10 224//10
f 225//10 229//10 230//10
f 226//10 229//10 225//10
f 226//10 228//10 229//10
f 227//10 228//10 226//10
o Curve.007
v 0.887678 0.910042 -0.000000
v 0.983248 0.910042 -0.000000
v 0.983248 0.516257 -0.000000
v 0.887678 0.516257 -0.000000
vn 0.0000 -0.0000 1.0000
usemtl SVGMat
s off
f 328//11 326//11 325//11
f 328//11 327//11 326//11
o Curve.006
v 0.887678 0.910042 -0.000000
v 0.983248 0.910042 -0.000000
v 0.983248 0.516257 -0.000000
v 0.887678 0.516257 -0.000000
vn 0.0000 -0.0000 1.0000
usemtl SVGMat
s off
f 332//12 330//12 329//12
f 332//12 331//12 330//12
o Curve.005
v 0.439299 0.593621 -0.000000
v 0.439299 0.910042 -0.000000
v 0.343645 0.910042 -0.000000
v 0.343645 0.516257 -0.000000
v 0.567411 0.516257 -0.000000
v 0.567411 0.593621 -0.000000
v 0.439299 0.593621 -0.000000
vn 0.0000 -0.0000 1.0000
usemtl SVGMat
s off
f 336//13 334//13 335//13
f 336//13 339//13 334//13
f 336//13 338//13 339//13
f 336//13 337//13 338//13
o Curve.004
v 0.439299 0.593621 -0.000000
v 0.439299 0.910042 -0.000000
v 0.343645 0.910042 -0.000000
v 0.343645 0.516257 -0.000000
v 0.567411 0.516257 -0.000000
v 0.567411 0.593621 -0.000000
v 0.439299 0.593621 -0.000000
vn 0.0000 -0.0000 1.0000
usemtl SVGMat
s off
f 343//14 341//14 342//14
f 343//14 346//14 341//14
f 343//14 345//14 346//14
f 343//14 344//14 345//14
o Curve.003
v 0.097882 0.688663 -0.000000
v 0.189983 0.516257 -0.000000
v 0.299794 0.516257 -0.000000
v 0.189983 0.722890 -0.000000
v 0.299794 0.910042 -0.000000
v 0.189983 0.910042 -0.000000
v 0.097882 0.743557 -0.000000
v 0.097882 0.910042 -0.000000
v 0.002256 0.910042 -0.000000
v 0.002256 0.516257 -0.000000
v 0.097882 0.516257 -0.000000
v 0.097882 0.688663 -0.000000
vn 0.0000 -0.0000 1.0000
usemtl SVGMat
s off
f 356//15 354//15 355//15
f 356//15 353//15 354//15
f 353//15 351//15 352//15
f 353//15 350//15 351//15
f 356//15 358//15 353//15
f 358//15 350//15 353//15
f 358//15 349//15 350//15
f 356//15 357//15 358//15
f 348//15 349//15 358//15
o Curve.002
v 0.189983 0.910070 -0.000000
v 0.097882 0.743557 -0.000000
v 0.097882 0.910070 -0.000000
v 0.002256 0.910070 -0.000000
v 0.002256 0.516257 -0.000000
v 0.097882 0.516257 -0.000000
v 0.097882 0.688663 -0.000000
v 0.189983 0.516257 -0.000000
v 0.299794 0.516257 -0.000000
v 0.189983 0.722919 -0.000000
v 0.299794 0.910070 -0.000000
v 0.189983 0.910070 -0.000000
vn 0.0000 -0.0000 1.0000
usemtl SVGMat
s off
f 363//16 361//16 362//16
f 363//16 360//16 361//16
f 360//16 369//16 370//16
f 360//16 368//16 369//16
f 363//16 365//16 360//16
f 365//16 368//16 360//16
f 365//16 367//16 368//16
f 363//16 364//16 365//16
f 366//16 367//16 365//16
o Curve.001
v 0.694480 0.832706 -0.000000
v 0.824341 0.832706 -0.000000
v 0.824341 0.910070 -0.000000
v 0.598826 0.910070 -0.000000
v 0.598826 0.516257 -0.000000
v 0.824341 0.516257 -0.000000
v 0.824341 0.593621 -0.000000
v 0.694480 0.593621 -0.000000
v 0.694480 0.675073 -0.000000
v 0.824341 0.675073 -0.000000
v 0.824341 0.752438 -0.000000
v 0.694480 0.752438 -0.000000
v 0.694480 0.832706 -0.000000
vn -0.0000 -0.0000 1.0000
usemtl SVGMat
s off
f 375//17 383//17 374//17
f 383//17 373//17 374//17
f 383//17 372//17 373//17
f 375//17 382//17 383//17
f 375//17 379//17 382//17
f 379//17 381//17 382//17
f 379//17 380//17 381//17
f 375//17 378//17 379//17
f 375//17 377//17 378//17
f 375//17 376//17 377//17
o Curve
v 0.694480 0.832706 -0.000000
v 0.824341 0.832706 -0.000000
v 0.824341 0.910070 -0.000000
v 0.598826 0.910070 -0.000000
v 0.598826 0.516257 -0.000000
v 0.824341 0.516257 -0.000000
v 0.824341 0.593621 -0.000000
v 0.694480 0.593621 -0.000000
v 0.694480 0.675073 -0.000000
v 0.824341 0.675073 -0.000000
v 0.824341 0.752438 -0.000000
v 0.694480 0.752438 -0.000000
v 0.694480 0.832706 -0.000000
vn -0.0000 -0.0000 1.0000
usemtl SVGMat
s off
f 388//18 396//18 387//18
f 396//18 386//18 387//18
f 396//18 385//18 386//18
f 388//18 395//18 396//18
f 388//18 392//18 395//18
f 392//18 394//18 395//18
f 392//18 393//18 394//18
f 388//18 391//18 392//18
f 388//18 390//18 391//18
f 388//18 389//18 390//18
